{
  "project_info": {
    "project_number": "339377346435",
    "firebase_url": "https://fir-agenda-ee331.firebaseio.com",
    "project_id": "fir-agenda-ee331",
    "storage_bucket": "fir-agenda-ee331.appspot.com"
  },
  "client": [
    {
      "client_info": {
        "mobilesdk_app_id": "1:339377346435:android:ae446591e54ff7256408b6",
        "android_client_info": {
          "package_name": "com.example.firebaseagenda"
        }
      },
      "oauth_client": [
        {
          "client_id": "339377346435-e9mev84rfgmmnq39hidk17cftddom94c.apps.googleusercontent.com",
          "client_type": 1,
          "android_info": {
            "package_name": "com.example.firebaseagenda",
            "certificate_hash": "0217e820c03f6a515934bdc390737e9003b5a001"
          }
        },
        {
          "client_id": "339377346435-s2l7ebvme6ho11hn2k736pfdl3pa7fdt.apps.googleusercontent.com",
          "client_type": 3
        }
      ],
      "api_key": [
        {
          "current_key": "AIzaSyCc2AjIETriT79BD_qEYs_5VXLiyxD2qis"
        }
      ],
      "services": {
        "appinvite_service": {
          "other_platform_oauth_client": [
            {
              "client_id": "339377346435-s2l7ebvme6ho11hn2k736pfdl3pa7fdt.apps.googleusercontent.com",
              "client_type": 3
            }
          ]
        }
      }
    }
  ],
  "configuration_version": "1"
}